
{
  "header": {
    "reportVersion": 1,
    "event": "Allocation failed - JavaScript heap out of memory",
    "trigger": "FatalError",
    "filename": "report.20200312.094201.6148.0.001.json",
    "dumpEventTime": "2020-03-12T09:42:01Z",
    "dumpEventTimeStamp": "1583980921980",
    "processId": 6148,
    "cwd": "D:\\cimb-digiloan\\DMS-Maintenance-master\\dms-maintenance\\maintenance-app",
    "commandLine": [
      "C:\\Program Files\\nodejs\\node.exe",
      "D:\\cimb-digiloan\\DMS-Maintenance-master\\dms-maintenance\\maintenance-app\\node_modules\\jest-worker\\build\\workers\\processChild.js"
    ],
    "nodejsVersion": "v12.14.1",
    "wordSize": 64,
    "arch": "x64",
    "platform": "win32",
    "componentVersions": {
      "node": "12.14.1",
      "v8": "7.7.299.13-node.16",
      "uv": "1.33.1",
      "zlib": "1.2.11",
      "brotli": "1.0.7",
      "ares": "1.15.0",
      "modules": "72",
      "nghttp2": "1.40.0",
      "napi": "5",
      "llhttp": "2.0.1",
      "http_parser": "2.8.0",
      "openssl": "1.1.1d",
      "cldr": "35.1",
      "icu": "64.2",
      "tz": "2019c",
      "unicode": "12.1"
    },
    "release": {
      "name": "node",
      "lts": "Erbium",
      "headersUrl": "https://nodejs.org/download/release/v12.14.1/node-v12.14.1-headers.tar.gz",
      "sourceUrl": "https://nodejs.org/download/release/v12.14.1/node-v12.14.1.tar.gz",
      "libUrl": "https://nodejs.org/download/release/v12.14.1/win-x64/node.lib"
    },
    "osName": "Windows_NT",
    "osRelease": "10.0.18362",
    "osVersion": "Windows 10 Pro",
    "osMachine": "x86_64",
    "cpus": [
      {
        "model": "Intel(R) Core(TM) i5-7200U CPU @ 2.50GHz",
        "speed": 2712,
        "user": 4546156,
        "nice": 0,
        "sys": 3017953,
        "idle": 28014171,
        "irq": 700203
      },
      {
        "model": "Intel(R) Core(TM) i5-7200U CPU @ 2.50GHz",
        "speed": 2712,
        "user": 4288234,
        "nice": 0,
        "sys": 1737765,
        "idle": 29552015,
        "irq": 36937
      },
      {
        "model": "Intel(R) Core(TM) i5-7200U CPU @ 2.50GHz",
        "speed": 2712,
        "user": 5426796,
        "nice": 0,
        "sys": 2046609,
        "idle": 28104609,
        "irq": 34296
      },
      {
        "model": "Intel(R) Core(TM) i5-7200U CPU @ 2.50GHz",
        "speed": 2712,
        "user": 5357500,
        "nice": 0,
        "sys": 1988468,
        "idle": 28232046,
        "irq": 26859
      }
    ],
    "networkInterfaces": [
      {
        "name": "Wi-Fi",
        "internal": false,
        "mac": "88:b1:11:5c:18:18",
        "address": "fe80::9426:a07:8ee8:b0e3",
        "netmask": "ffff:ffff:ffff:ffff::",
        "family": "IPv6",
        "scopeid": 5
      },
      {
        "name": "Wi-Fi",
        "internal": false,
        "mac": "88:b1:11:5c:18:18",
        "address": "192.168.0.4",
        "netmask": "255.255.255.0",
        "family": "IPv4"
      },
      {
        "name": "Loopback Pseudo-Interface 1",
        "internal": true,
        "mac": "00:00:00:00:00:00",
        "address": "::1",
        "netmask": "ffff:ffff:ffff:ffff:ffff:ffff:ffff:ffff",
        "family": "IPv6",
        "scopeid": 0
      },
      {
        "name": "Loopback Pseudo-Interface 1",
        "internal": true,
        "mac": "00:00:00:00:00:00",
        "address": "127.0.0.1",
        "netmask": "255.0.0.0",
        "family": "IPv4"
      }
    ],
    "host": "DESKTOP-9FVQLH3"
  },
  "javascriptStack": {
    "message": "No stack.",
    "stack": [
      "Unavailable."
    ]
  },
  "nativeStack": [
    {
      "pc": "0x00007ff662881759",
      "symbol": ""
    },
    {
      "pc": "0x00007ff662885b7c",
      "symbol": ""
    },
    {
      "pc": "0x00007ff662884b38",
      "symbol": ""
    },
    {
      "pc": "0x00007ff66297433b",
      "symbol": ""
    },
    {
      "pc": "0x00007ff663178c5e",
      "symbol": ""
    },
    {
      "pc": "0x00007ff663160ca1",
      "symbol": ""
    },
    {
      "pc": "0x00007ff66302e56c",
      "symbol": ""
    },
    {
      "pc": "0x00007ff662fe833b",
      "symbol": ""
    },
    {
      "pc": "0x00007ff662fe816c",
      "symbol": ""
    },
    {
      "pc": "0x00007ff662fe9261",
      "symbol": ""
    },
    {
      "pc": "0x00007ff662fe75cd",
      "symbol": ""
    },
    {
      "pc": "0x00007ff662fee279",
      "symbol": ""
    },
    {
      "pc": "0x00007ff662fee53d",
      "symbol": ""
    },
    {
      "pc": "0x00007ff662fee9e6",
      "symbol": ""
    },
    {
      "pc": "0x00007ff66301a072",
      "symbol": ""
    },
    {
      "pc": "0x00007ff663019ffa",
      "symbol": ""
    },
    {
      "pc": "0x00007ff662fec397",
      "symbol": ""
    },
    {
      "pc": "0x00007ff66303b332",
      "symbol": ""
    },
    {
      "pc": "0x00007ff663035c76",
      "symbol": ""
    },
    {
      "pc": "0x00007ff66302bcd3",
      "symbol": ""
    },
    {
      "pc": "0x00007ff66302a4a4",
      "symbol": ""
    },
    {
      "pc": "0x00007ff66304b775",
      "symbol": ""
    },
    {
      "pc": "0x00007ff662db7a49",
      "symbol": ""
    },
    {
      "pc": "0x00007ff6635a463d",
      "symbol": ""
    },
    {
      "pc": "0x00007ff6635a5571",
      "symbol": ""
    },
    {
      "pc": "0x00000219986969c9",
      "symbol": ""
    }
  ],
  "javascriptHeap": {
    "totalMemory": 406085632,
    "totalCommittedMemory": 406085632,
    "usedMemory": 383670072,
    "availableMemory": 1809028480,
    "memoryLimit": 2197815296,
    "heapSpaces": {
      "read_only_space": {
        "memorySize": 262144,
        "committedMemory": 262144,
        "capacity": 261872,
        "used": 32296,
        "available": 229576
      },
      "new_space": {
        "memorySize": 33554432,
        "committedMemory": 33554432,
        "capacity": 16759808,
        "used": 16727312,
        "available": 32496
      },
      "old_space": {
        "memorySize": 264351744,
        "committedMemory": 264351744,
        "capacity": 263884000,
        "used": 263883976,
        "available": 24
      },
      "code_space": {
        "memorySize": 688128,
        "committedMemory": 688128,
        "capacity": 638048,
        "used": 330208,
        "available": 307840
      },
      "map_space": {
        "memorySize": 790528,
        "committedMemory": 790528,
        "capacity": 789200,
        "used": 295840,
        "available": 493360
      },
      "large_object_space": {
        "memorySize": 106389504,
        "committedMemory": 106389504,
        "capacity": 102396888,
        "used": 102396888,
        "available": 0
      },
      "code_large_object_space": {
        "memorySize": 49152,
        "committedMemory": 49152,
        "capacity": 3552,
        "used": 3552,
        "available": 0
      },
      "new_large_object_space": {
        "memorySize": 0,
        "committedMemory": 0,
        "capacity": 16759808,
        "used": 0,
        "available": 16759808
      }
    }
  },
  "resourceUsage": {
    "userCpuSeconds": 9.218,
    "kernelCpuSeconds": 0.484,
    "cpuConsumptionPercent": 44.1,
    "maxRss": 446189568,
    "pageFaults": {
      "IORequired": 223926,
      "IONotRequired": 0
    },
    "fsActivity": {
      "reads": 179,
      "writes": 145
    }
  },
  "libuv": [
  ],
  "environmentVariables": {
    "ALLUSERSPROFILE": "C:\\ProgramData",
    "APPDATA": "C:\\Users\\hikma\\AppData\\Roaming",
    "COLORTERM": "truecolor",
    "CommonProgramFiles": "C:\\Program Files\\Common Files",
    "CommonProgramFiles(x86)": "C:\\Program Files (x86)\\Common Files",
    "CommonProgramW6432": "C:\\Program Files\\Common Files",
    "COMPUTERNAME": "DESKTOP-9FVQLH3",
    "ComSpec": "C:\\Windows\\system32\\cmd.exe",
    "dp0": "D:\\cimb-digiloan\\DMS-Maintenance-master\\dms-maintenance\\maintenance-app\\node_modules\\.bin\\",
    "DriverData": "C:\\Windows\\System32\\Drivers\\DriverData",
    "FORCE_COLOR": "1",
    "HOME": "C:\\Users\\hikma",
    "HOMEDRIVE": "C:",
    "HOMEPATH": "\\Users\\hikma",
    "INIT_CWD": "D:\\cimb-digiloan\\DMS-Maintenance-master\\dms-maintenance\\maintenance-app",
    "JEST_WORKER_ID": "1",
    "LANG": "en_US.UTF-8",
    "LOCALAPPDATA": "C:\\Users\\hikma\\AppData\\Local",
    "LOGONSERVER": "\\\\DESKTOP-9FVQLH3",
    "MOSQUITTO_DIR": "C:\\Program Files\\mosquitto",
    "MSMPI_BIN": "C:\\Program Files\\Microsoft MPI\\Bin\\",
    "NODE": "C:\\Program Files\\nodejs\\node.exe",
    "NODE_EXE": "C:\\Program Files\\nodejs\\\\node.exe",
    "NPM_CLI_JS": "C:\\Program Files\\nodejs\\\\node_modules\\npm\\bin\\npm-cli.js",
    "npm_config_access": "",
    "npm_config_allow_same_version": "",
    "npm_config_also": "",
    "npm_config_always_auth": "",
    "npm_config_argv": "{\"remain\":[],\"cooked\":[\"start\"],\"original\":[\"start\"]}",
    "npm_config_audit": "true",
    "npm_config_audit_level": "low",
    "npm_config_auth_type": "legacy",
    "npm_config_before": "",
    "npm_config_bin_links": "true",
    "npm_config_browser": "",
    "npm_config_ca": "",
    "npm_config_cache": "C:\\Users\\hikma\\AppData\\Roaming\\npm-cache",
    "npm_config_cache_lock_retries": "10",
    "npm_config_cache_lock_stale": "60000",
    "npm_config_cache_lock_wait": "10000",
    "npm_config_cache_max": "Infinity",
    "npm_config_cache_min": "10",
    "npm_config_cafile": "",
    "npm_config_cert": "",
    "npm_config_cidr": "",
    "npm_config_color": "true",
    "npm_config_commit_hooks": "true",
    "npm_config_depth": "Infinity",
    "npm_config_description": "true",
    "npm_config_dev": "",
    "npm_config_dry_run": "",
    "npm_config_editor": "notepad.exe",
    "npm_config_engine_strict": "",
    "npm_config_fetch_retries": "2",
    "npm_config_fetch_retry_factor": "10",
    "npm_config_fetch_retry_maxtimeout": "60000",
    "npm_config_fetch_retry_mintimeout": "10000",
    "npm_config_force": "",
    "npm_config_format_package_lock": "true",
    "npm_config_fund": "true",
    "npm_config_git": "git",
    "npm_config_git_tag_version": "true",
    "npm_config_global": "",
    "npm_config_globalconfig": "C:\\Users\\hikma\\AppData\\Roaming\\npm\\etc\\npmrc",
    "npm_config_globalignorefile": "C:\\Users\\hikma\\AppData\\Roaming\\npm\\etc\\npmignore",
    "npm_config_global_style": "",
    "npm_config_group": "",
    "npm_config_ham_it_up": "",
    "npm_config_heading": "npm",
    "npm_config_https_proxy": "",
    "npm_config_if_present": "",
    "npm_config_ignore_prepublish": "",
    "npm_config_ignore_scripts": "",
    "npm_config_init_author_email": "",
    "npm_config_init_author_name": "",
    "npm_config_init_author_url": "",
    "npm_config_init_license": "ISC",
    "npm_config_init_module": "C:\\Users\\hikma\\.npm-init.js",
    "npm_config_init_version": "1.0.0",
    "npm_config_json": "",
    "npm_config_key": "",
    "npm_config_legacy_bundling": "",
    "npm_config_link": "",
    "npm_config_local_address": "",
    "npm_config_loglevel": "notice",
    "npm_config_logs_max": "10",
    "npm_config_long": "",
    "npm_config_maxsockets": "50",
    "npm_config_message": "%s",
    "npm_config_metrics_registry": "https://registry.npmjs.org/",
    "npm_config_node_gyp": "C:\\Program Files\\nodejs\\node_modules\\npm\\node_modules\\node-gyp\\bin\\node-gyp.js",
    "npm_config_node_options": "",
    "npm_config_node_version": "12.14.1",
    "npm_config_noproxy": "",
    "npm_config_offline": "",
    "npm_config_onload_script": "",
    "npm_config_only": "",
    "npm_config_optional": "true",
    "npm_config_otp": "",
    "npm_config_package_lock": "true",
    "npm_config_package_lock_only": "",
    "npm_config_parseable": "",
    "npm_config_prefer_offline": "",
    "npm_config_prefer_online": "",
    "npm_config_prefix": "C:\\Users\\hikma\\AppData\\Roaming\\npm",
    "npm_config_preid": "",
    "npm_config_production": "",
    "npm_config_progress": "true",
    "npm_config_proxy": "",
    "npm_config_read_only": "",
    "npm_config_rebuild_bundle": "true",
    "npm_config_registry": "https://registry.npmjs.org/",
    "npm_config_rollback": "true",
    "npm_config_save": "true",
    "npm_config_save_bundle": "",
    "npm_config_save_dev": "",
    "npm_config_save_exact": "",
    "npm_config_save_optional": "",
    "npm_config_save_prefix": "^",
    "npm_config_save_prod": "",
    "npm_config_scope": "",
    "npm_config_scripts_prepend_node_path": "warn-only",
    "npm_config_script_shell": "",
    "npm_config_searchexclude": "",
    "npm_config_searchlimit": "20",
    "npm_config_searchopts": "",
    "npm_config_searchstaleness": "900",
    "npm_config_send_metrics": "",
    "npm_config_shell": "C:\\Windows\\system32\\cmd.exe",
    "npm_config_shrinkwrap": "true",
    "npm_config_sign_git_commit": "",
    "npm_config_sign_git_tag": "",
    "npm_config_sso_poll_frequency": "500",
    "npm_config_sso_type": "oauth",
    "npm_config_strict_ssl": "true",
    "npm_config_tag": "latest",
    "npm_config_tag_version_prefix": "v",
    "npm_config_timing": "",
    "npm_config_tmp": "C:\\Users\\hikma\\AppData\\Local\\Temp",
    "npm_config_umask": "0000",
    "npm_config_unicode": "",
    "npm_config_unsafe_perm": "true",
    "npm_config_update_notifier": "true",
    "npm_config_usage": "",
    "npm_config_user": "",
    "npm_config_userconfig": "C:\\Users\\hikma\\.npmrc",
    "npm_config_user_agent": "npm/6.13.4 node/v12.14.1 win32 x64",
    "npm_config_version": "",
    "npm_config_versions": "",
    "npm_config_viewer": "browser",
    "npm_execpath": "C:\\Program Files\\nodejs\\node_modules\\npm\\bin\\npm-cli.js",
    "npm_lifecycle_event": "start",
    "npm_lifecycle_script": "webpack-dev-server --mode development --inline --progress",
    "npm_node_execpath": "C:\\Program Files\\nodejs\\node.exe",
    "npm_package_browserslist_development_0": "last 1 chrome version",
    "npm_package_browserslist_development_1": "last 1 firefox version",
    "npm_package_browserslist_development_2": "last 1 safari version",
    "npm_package_browserslist_production_0": ">0.2%",
    "npm_package_browserslist_production_1": "not dead",
    "npm_package_browserslist_production_2": "not op_mini all",
    "npm_package_dependencies_auth0_js": "^9.11.3",
    "npm_package_dependencies_autosuggest_highlight": "3.1.1",
    "npm_package_dependencies_axios": "^0.19.0",
    "npm_package_dependencies_babel_polyfill": "^6.26.0",
    "npm_package_dependencies_bootstrap": "^4.3.1",
    "npm_package_dependencies_chart_js": "^2.8.0",
    "npm_package_dependencies_classnames": "2.2.6",
    "npm_package_dependencies_downshift": "^3.2.10",
    "npm_package_dependencies_draft_js": "^0.11.0",
    "npm_package_dependencies_globalize": "^0.1.1",
    "npm_package_dependencies_google_map_react": "^1.1.4",
    "npm_package_dependencies_instantsearch_css": "^7.3.1",
    "npm_package_dependencies_leaflet": "^1.5.1",
    "npm_package_dependencies_lodash": "^4.17.15",
    "npm_package_dependencies_moment": "^2.24.0",
    "npm_package_dependencies_mui_datatables": "^2.8.1",
    "npm_package_dependencies_rc_pagination": "^1.21.0",
    "npm_package_dependencies_rc_queue_anim": "^1.6.12",
    "npm_package_dependencies_reactstrap": "^8.0.1",
    "npm_package_dependencies_react_addons_update": "15.6.2",
    "npm_package_dependencies_react_autosuggest": "^9.4.3",
    "npm_package_dependencies_react_beautiful_dnd": "^11.0.5",
    "npm_package_dependencies_react_big_calendar": "^0.19.0",
    "npm_package_dependencies_react_bootstrap_sweetalert": "^4.4.1",
    "npm_package_dependencies_react_chartjs_2": "^2.7.6",
    "npm_package_dependencies_react_content_loader": "^4.2.2",
    "npm_package_dependencies_react_countup": "^4.2.0",
    "npm_package_dependencies_react_credit_cards": "^0.7.0",
    "npm_package_dependencies_react_cropper": "^1.2.0",
    "npm_package_dependencies_react_custom_scrollbars": "^4.2.1",
    "npm_package_dependencies_react_d3_speedometer": "^0.7.3",
    "npm_package_dependencies_react_dnd": "^9.3.2",
    "npm_package_dependencies_react_dnd_html5_backend": "^9.3.2",
    "npm_package_dependencies_react_draft_wysiwyg": "^1.13.2",
    "npm_package_dependencies_react_dragula": "1.1.17",
    "npm_package_dependencies_react_dropzone_component": "^3.2.0",
    "npm_package_dependencies_react_helmet": "^5.2.1",
    "npm_package_dependencies_react_hot_loader": "^4.8.0",
    "npm_package_dependencies_react_instantsearch": "^5.7.0",
    "npm_package_dependencies_react_intl": "^2.9.0",
    "npm_package_dependencies_react_jvectormap": "0.0.12",
    "npm_package_dependencies_react_leaflet": "^2.6.0",
    "npm_package_dependencies_react_loadable": "^5.5.0",
    "npm_package_dependencies_react_notifications": "^1.4.3",
    "npm_package_dependencies_react_number_format": "^4.0.8",
    "npm_package_dependencies_react_quill": "^1.3.3",
    "npm_package_dependencies_react_redux": "^7.1.0",
    "npm_package_dependencies_react_router_dom": "^5.0.1",
    "npm_package_dependencies_react_select": "^3.0.4",
    "npm_package_dependencies_react_sidebar": "^3.0.2",
    "npm_package_dependencies_react_slick": "^0.25.2",
    "npm_package_dependencies_react_star_rating_component_unsafe": "^1.4.3",
    "npm_package_dependencies_react_swipeable_views": "^0.13.3",
    "npm_package_dependencies_react_table": "^6.10.0",
    "npm_package_dependencies_react_textfit": "^1.1.0",
    "npm_package_dependencies_react_textfit_17": "^1.1.1",
    "npm_package_dependencies_react_text_mask": "^5.4.3",
    "npm_package_dependencies_react_toggle_switch": "^3.0.4",
    "npm_package_dependencies_react_tooltip": "^3.10.0",
    "npm_package_dependencies_react_twitter_widgets": "^1.7.1",
    "npm_package_dependencies_recharts": "^1.6.2",
    "npm_package_dependencies_redux": "^4.0.4",
    "npm_package_dependencies_redux_thunk": "^2.3.0",
    "npm_package_dependencies_screenfull": "^4.2.1",
    "npm_package_dependencies_slick_carousel": "^1.8.1",
    "npm_package_dependencies_weather_icons": "^1.3.2",
    "npm_package_dependencies__amcharts_amcharts4": "^4.5.16",
    "npm_package_dependencies__date_io_date_fns": "^1.3.9",
    "npm_package_dependencies__date_io_moment": "^1.3.9",
    "npm_package_dependencies__material_ui_core": "^4.4.0",
    "npm_package_dependencies__material_ui_icons": "^4.2.1",
    "npm_package_dependencies__material_ui_pickers": "^3.2.3",
    "npm_package_description": "> A material design reactjs admin template",
    "npm_package_devDependencies_babel_loader": "^8.0.6",
    "npm_package_devDependencies_clean_webpack_plugin": "^3.0.0",
    "npm_package_devDependencies_css_loader": "^3.2.0",
    "npm_package_devDependencies_eslint": "^4.19.1",
    "npm_package_devDependencies_eslint_config_react_app": "^2.1.0",
    "npm_package_devDependencies_eslint_plugin_flowtype": "^2.47.1",
    "npm_package_devDependencies_eslint_plugin_import": "^2.12.0",
    "npm_package_devDependencies_eslint_plugin_jsx_a11y": "^5.1.1",
    "npm_package_devDependencies_eslint_plugin_react": "^7.8.2",
    "npm_package_devDependencies_file_loader": "^1.1.11",
    "npm_package_devDependencies_friendly_errors_webpack_plugin": "^1.7.0",
    "npm_package_devDependencies_html_loader": "^0.5.5",
    "npm_package_devDependencies_html_webpack_plugin": "^3.2.0",
    "npm_package_devDependencies_html_webpack_template": "^6.2.0",
    "npm_package_devDependencies_mini_css_extract_plugin": "^0.8.0",
    "npm_package_devDependencies_node_sass": "^4.13.1",
    "npm_package_devDependencies_postcss_loader": "^3.0.0",
    "npm_package_devDependencies_react": "^16.12.0",
    "npm_package_devDependencies_react_dom": "^16.12.0",
    "npm_package_devDependencies_sass_loader": "^8.0.0",
    "npm_package_devDependencies_style_loader": "^1.0.0",
    "npm_package_devDependencies_terser_webpack_plugin": "^2.3.0",
    "npm_package_devDependencies_url_loader": "^2.1.0",
    "npm_package_devDependencies_webpack": "^4.41.0",
    "npm_package_devDependencies_webpack_cli": "^3.3.9",
    "npm_package_devDependencies_webpack_dev_server": "^3.8.1",
    "npm_package_devDependencies__babel_cli": "^7.7.0",
    "npm_package_devDependencies__babel_core": "^7.7.2",
    "npm_package_devDependencies__babel_node": "^7.7.0",
    "npm_package_devDependencies__babel_plugin_proposal_class_properties": "^7.7.0",
    "npm_package_devDependencies__babel_polyfill": "^7.7.0",
    "npm_package_devDependencies__babel_preset_env": "^7.7.1",
    "npm_package_devDependencies__babel_preset_react": "^7.7.0",
    "npm_package_devDependencies__babel_register": "^7.7.0",
    "npm_package_keywords_0": "reactjs",
    "npm_package_name": "maintenance-app",
    "npm_package_private": "true",
    "npm_package_readmeFilename": "README.md",
    "npm_package_scripts_build": "webpack --mode production",
    "npm_package_scripts_dev": "webpack-dev-server --hot --mode development --inline --progress",
    "npm_package_scripts_start": "webpack-dev-server --mode development --inline --progress",
    "npm_package_version": "0.1.0",
    "NPM_PREFIX_NPM_CLI_JS": "C:\\Users\\hikma\\AppData\\Roaming\\npm\\node_modules\\npm\\bin\\npm-cli.js",
    "NUMBER_OF_PROCESSORS": "4",
    "OneDrive": "C:\\Users\\hikma\\OneDrive",
    "OneDriveConsumer": "C:\\Users\\hikma\\OneDrive",
    "OS": "Windows_NT",
    "Path": "C:\\Program Files\\nodejs\\node_modules\\npm\\node_modules\\npm-lifecycle\\node-gyp-bin;D:\\cimb-digiloan\\DMS-Maintenance-master\\dms-maintenance\\maintenance-app\\node_modules\\.bin;C:\\Program Files (x86)\\PHP\\v5.6;C:\\Program Files\\Microsoft MPI\\Bin\\;C:\\Program Files (x86)\\Common Files\\Oracle\\Java\\javapath;C:\\Windows\\system32;C:\\Windows;C:\\Windows\\System32\\Wbem;C:\\Windows\\System32\\WindowsPowerShell\\v1.0\\;C:\\Windows\\System32\\OpenSSH\\;C:\\Program Files\\Intel\\WiFi\\bin\\;C:\\Program Files\\Common Files\\Intel\\WirelessCommon\\;C:\\Program Files\\Microsoft SQL Server\\130\\Tools\\Binn\\;C:\\Program Files\\Microsoft SQL Server\\Client SDK\\ODBC\\170\\Tools\\Binn\\;C:\\Program Files\\Git\\cmd;C:\\Program Files (x86)\\Microsoft SQL Server\\150\\DTS\\Binn\\;C:\\Program Files (x86)\\Microsoft SQL Server\\140\\Tools\\Binn\\;C:\\Program Files\\Microsoft SQL Server\\140\\Tools\\Binn\\;C:\\Program Files (x86)\\Microsoft SQL Server\\140\\DTS\\Binn\\;C:\\Program Files\\Microsoft SQL Server\\140\\DTS\\Binn\\;C:\\Program Files\\Microsoft SQL Server\\Client SDK\\ODBC\\130\\Tools\\Binn\\;C:\\src\\flutter\\bin;C:\\Program Files\\Microsoft\\Web Platform Installer\\;C:\\Users\\hikma\\AppData\\Local\\Programs\\;C:\\Program Files\\dotnet\\;C:\\Program Files\\nodejs\\;C:\\Program Files\\CMake\\bin;C:\\Users\\hikma\\AppData\\Local\\Programs\\Python\\Python38\\Scripts\\;C:\\Users\\hikma\\AppData\\Local\\Programs\\Python\\Python38\\;C:\\Users\\hikma\\AppData\\Local\\Microsoft\\WindowsApps;C:\\Users\\hikma\\AppData\\Local\\Programs\\Microsoft VS Code\\bin;C:\\src\\flutter\\bin;C:\\Users\\hikma\\AppData\\Roaming\\npm;C:\\Users\\hikma\\.dotnet\\tools",
    "PATHEXT": ".COM;.EXE;.BAT;.CMD;.VBS;.VBE;.JSE;.WSF;.WSH;.MSC;.CPL",
    "PROCESSOR_ARCHITECTURE": "AMD64",
    "PROCESSOR_IDENTIFIER": "Intel64 Family 6 Model 142 Stepping 9, GenuineIntel",
    "PROCESSOR_LEVEL": "6",
    "PROCESSOR_REVISION": "8e09",
    "ProgramData": "C:\\ProgramData",
    "ProgramFiles": "C:\\Program Files",
    "ProgramFiles(x86)": "C:\\Program Files (x86)",
    "ProgramW6432": "C:\\Program Files",
    "PROMPT": "$P$G",
    "PSModulePath": "C:\\Users\\hikma\\OneDrive\\Documents\\WindowsPowerShell\\Modules;C:\\Program Files\\WindowsPowerShell\\Modules;C:\\Windows\\system32\\WindowsPowerShell\\v1.0\\Modules;C:\\Program Files (x86)\\Microsoft SQL Server\\140\\Tools\\PowerShell\\Modules\\",
    "PUBLIC": "C:\\Users\\Public",
    "SESSIONNAME": "Console",
    "SystemDrive": "C:",
    "SystemRoot": "C:\\Windows",
    "TEMP": "C:\\Users\\hikma\\AppData\\Local\\Temp",
    "TERM_PROGRAM": "vscode",
    "TERM_PROGRAM_VERSION": "1.43.0",
    "TMP": "C:\\Users\\hikma\\AppData\\Local\\Temp",
    "USERDOMAIN": "DESKTOP-9FVQLH3",
    "USERDOMAIN_ROAMINGPROFILE": "DESKTOP-9FVQLH3",
    "USERNAME": "hikma",
    "USERPROFILE": "C:\\Users\\hikma",
    "WEBPACK_DEV_SERVER": "true",
    "windir": "C:\\Windows",
    "_prog": "node"
  },
  "sharedObjects": [
    "C:\\Program Files\\nodejs\\node.exe",
    "C:\\Windows\\SYSTEM32\\ntdll.dll",
    "C:\\Windows\\System32\\KERNEL32.DLL",
    "C:\\Windows\\System32\\KERNELBASE.dll",
    "C:\\Windows\\System32\\WS2_32.dll",
    "C:\\Windows\\System32\\RPCRT4.dll",
    "C:\\Windows\\System32\\ADVAPI32.dll",
    "C:\\Windows\\SYSTEM32\\dbghelp.dll",
    "C:\\Windows\\System32\\msvcrt.dll",
    "C:\\Windows\\System32\\ucrtbase.dll",
    "C:\\Windows\\System32\\sechost.dll",
    "C:\\Windows\\System32\\USER32.dll",
    "C:\\Windows\\System32\\win32u.dll",
    "C:\\Windows\\System32\\GDI32.dll",
    "C:\\Windows\\System32\\gdi32full.dll",
    "C:\\Windows\\System32\\msvcp_win.dll",
    "C:\\Windows\\System32\\PSAPI.DLL",
    "C:\\Windows\\System32\\CRYPT32.dll",
    "C:\\Windows\\System32\\MSASN1.dll",
    "C:\\Windows\\System32\\bcrypt.dll",
    "C:\\Windows\\SYSTEM32\\IPHLPAPI.DLL",
    "C:\\Windows\\SYSTEM32\\USERENV.dll",
    "C:\\Windows\\System32\\profapi.dll",
    "C:\\Windows\\SYSTEM32\\WINMM.dll",
    "C:\\Windows\\SYSTEM32\\WINMMBASE.dll",
    "C:\\Windows\\System32\\cfgmgr32.dll",
    "C:\\Windows\\System32\\bcryptPrimitives.dll",
    "C:\\Windows\\System32\\IMM32.DLL",
    "C:\\Windows\\System32\\powrprof.dll",
    "C:\\Windows\\System32\\UMPDC.dll",
    "C:\\Windows\\SYSTEM32\\CRYPTBASE.DLL",
    "C:\\Windows\\system32\\uxtheme.dll",
    "C:\\Windows\\System32\\combase.dll",
    "C:\\Windows\\system32\\mswsock.dll",
    "C:\\Windows\\System32\\kernel.appcore.dll",
    "C:\\Windows\\System32\\NSI.dll",
    "C:\\Windows\\SYSTEM32\\dhcpcsvc6.DLL",
    "C:\\Windows\\SYSTEM32\\dhcpcsvc.DLL",
    "C:\\Windows\\System32\\winrnr.dll",
    "C:\\Windows\\system32\\NLAapi.dll",
    "C:\\Windows\\system32\\wshbth.dll"
  ]
}